<svg width="512" height="512" viewBox="0 0 512 512" fill="none" xmlns="http://www.w3.org/2000/svg">
<path d="M347.17 219.471V109.773C346.988 86.28 339.269 63.4658 325.149 44.689C311.028 25.9121 291.253 12.1645 268.733 5.47003C246.213 -1.22447 222.139 -0.512236 200.055 7.5019C177.97 15.516 159.042 30.4086 146.056 49.9875L343.33 247.81C345.922 238.588 347.215 229.05 347.17 219.471V219.471Z" fill="white"/>
<path d="M420.302 219.471C420.302 214.622 418.376 209.972 414.947 206.543C411.518 203.114 406.868 201.188 402.019 201.188C397.17 201.188 392.519 203.114 389.091 206.543C385.662 209.972 383.736 214.622 383.736 219.471C383.698 239.078 379.719 258.476 372.035 276.514L399.459 303.939C413.213 277.912 420.369 248.908 420.302 219.471V219.471Z" fill="white"/>
<path d="M488.132 444.17L379.896 335.934L353.02 309.058L326.875 282.913L130.333 86.3708L49.3388 5.37689C47.6341 3.67221 45.6104 2.31998 43.3831 1.39741C41.1558 0.474839 38.7686 0 36.3578 0C33.9471 0 31.5599 0.474839 29.3326 1.39741C27.1053 2.31998 25.0816 3.67221 23.3769 5.37689C19.9341 8.81965 18 13.489 18 18.3579C18 23.2267 19.9341 27.896 23.3769 31.3388L127.773 135.735V219.471C127.789 239.586 133.336 259.31 143.806 276.485C154.276 293.66 169.268 307.625 187.141 316.854C205.013 326.083 225.08 330.22 245.145 328.813C265.211 327.406 284.504 320.509 300.913 308.875L327.058 335.02C305.437 351.774 279.551 362.129 252.34 364.909C225.129 367.69 197.684 362.784 173.121 350.75C148.558 338.716 127.861 320.036 113.382 296.83C98.9023 273.625 91.2198 246.824 91.207 219.471C91.207 214.622 89.2807 209.972 85.852 206.543C82.4232 203.115 77.7729 201.188 72.9239 201.188C68.075 201.188 63.4246 203.115 59.9959 206.543C56.5671 209.972 54.6409 214.622 54.6409 219.471C54.6403 264.796 71.4753 308.505 101.88 342.119C132.284 375.733 174.091 396.855 219.188 401.388V475.434H146.056C141.207 475.434 136.557 477.36 133.128 480.789C129.699 484.218 127.773 488.868 127.773 493.717C127.773 498.566 129.699 503.216 133.128 506.645C136.557 510.074 141.207 512 146.056 512H328.886C333.735 512 338.386 510.074 341.815 506.645C345.243 503.216 347.169 498.566 347.169 493.717C347.169 488.868 345.243 484.218 341.815 480.789C338.386 477.36 333.735 475.434 328.886 475.434H255.754V401.388C291.482 397.839 325.374 383.85 353.203 361.165L462.901 470.863C464.601 472.577 466.623 473.937 468.851 474.865C471.079 475.793 473.468 476.271 475.882 476.271C478.296 476.271 480.685 475.793 482.913 474.865C485.141 473.937 487.163 472.577 488.863 470.863C490.644 469.103 492.044 466.997 492.977 464.674C493.91 462.35 494.357 459.86 494.288 457.358C494.22 454.855 493.638 452.393 492.579 450.125C491.52 447.856 490.006 445.83 488.132 444.17Z" fill="white"/>
</svg>
